PROVINCE   P INCOME    MEMBER  MEMBER INCOME
   01     $500,148,737    751       $999,521
   02     $003,921,184    109       $999,960
   03     $503,277,373    308       $999,119
   04     $999,792,190    552       $999,185
   05     $505,417,537     79       $999,320
   06     $011,148,563    161       $999,365
   07     $495,340,699    513       $998,369
   08     $005,628,344    716       $998,986
   09     $488,136,505    998       $998,562
   10     $988,725,363    439       $999,160
   11     $494,172,594    314       $999,375
   12     $001,630,046    223       $994,981
   13     $517,916,397    708       $999,770
   14     $010,701,311    493       $998,614
   15     $521,208,920     37       $998,744
   16     $026,452,937    576       $999,592
   17     $528,246,629    105       $997,649
   18     $024,778,749    619       $999,546
   19     $512,285,789    709       $997,516
   20     $998,364,107    807       $999,702
   21     $502,669,754    662       $996,492
   22     $998,059,551    522       $998,280
   23     $502,119,995    470       $997,555
   24     $006,613,855    119       $999,216
   25     $496,927,724    934       $999,776
   26     $998,787,833    246       $999,584
   27     $515,303,291    434       $998,019
   28     $009,902,322    927       $999,537
   29     $516,924,352     22       $997,821
   30     $015,446,080    789       $999,141
   31     $522,558,231    620       $998,716
   32     $027,218,201    743       $999,592
   33     $529,974,293    833       $999,284
   34     $037,377,136     41       $999,670
   35     $525,331,264    518       $999,584
   36     $020,476,959    775       $999,955
   37     $523,975,353    756       $998,563
   38     $036,856,977    744       $998,911
   39     $545,404,087    817       $999,671
   40     $036,876,619    966       $999,201
   41     $541,466,392    703       $998,936
   42     $048,905,531    101       $998,292
   43     $546,648,670    908       $999,960
   44     $041,467,214    359       $999,886
   45     $563,698,551    126       $999,725
   46     $055,702,071     73       $999,858
   47     $566,705,213    801       $999,473
   48     $068,102,995    329       $998,428
   49     $577,259,999    813       $999,421
   50     $079,881,225     52       $999,814
   51     $566,791,227    483       $998,843
   52     $071,637,338    187       $999,569
   53     $574,790,394    950       $999,956
   54     $074,725,979    684       $999,940
   55     $569,013,646    627       $999,448
   56     $076,850,016    592       $998,188
   57     $581,065,557    414       $999,998
   58     $078,549,469    151       $999,396
   59     $581,731,893    166       $998,489
   60     $090,543,304    170       $997,759
   61     $606,726,934    750       $999,899
   62     $113,718,538    258       $999,474
   63     $612,562,446    540       $999,459
   64     $122,837,948     46       $998,875
   65     $623,635,654    791       $999,781
   66     $110,487,868    365       $998,569
   67     $616,090,993    256       $997,456
   68     $125,746,704    568       $999,114
   69     $632,715,775    708       $998,033
   70     $145,590,411     32       $999,863
   71     $643,145,345    393       $999,854
   72     $155,837,207    232       $999,292
   73     $648,046,057    986       $999,907
   74     $156,126,013    805       $999,921
   75     $654,488,139    573       $999,254
   76     $162,752,807    199       $997,600
MAX PROVINCE:    4 SUM INCOME: $999,792,190 
